{
  "products": [
    {
      "category": "Basketball",
      "description": "",
      "image": "https://cdn.pixabay.com/photo/2016/09/21/07/59/ball-1684283_1280.png",
      "name": "Bola de Basquete",
      "price": 99.99,
      "priceFrom": 119.99
    },
    {
      "category": "",
      "description": "",
      "image": "",
      "name": "",
      "price": 1,
      "priceFrom": 0
    },
    {
      "category": "",
      "description": "",
      "image": "",
      "name": "",
      "price": 1,
      "priceFrom": 0
    },
    {
      "category": "",
      "description": "",
      "image": "",
      "name": "",
      "price": 1,
      "priceFrom": 0
    },
    {
      "category": "",
      "description": "",
      "image": "",
      "name": "",
      "price": 1,
      "priceFrom": 0
    }
  ]
}
